arr_id,number_of_residents,number_of_residents_in_percents
1,590708,7.34
2,380795,4.73
3,535480,6.66
4,613097,7.62
5,342750,4.26
6,327935,4.08
7,331056,4.12
8,328123,4.08
9,202239,2.51
10,178182,2.22
11,38960,0.48
12,334504,4.16
13,10746,0.13
14,44861,0.56
15,88456,1.1
16,54995,0.68
17,9512,0.12
18,8296,0.1
19,208881,2.6
20,90770,1.13
21,9436,0.12
22,71238,0.89
23,7637,0.09
24,3760,0.05
25,295245,3.67
26,79941,0.99
27,5221,0.06
28,35900,0.45
29,10309,0.13
30,7136,0.09
31,6081,0.08
32,17893,0.22
33,43872,0.55
34,9616,0.12
35,18306,0.23
36,33745,0.42
37,18667,0.23
38,42873,0.53
39,30542,0.38
40,12121,0.15
41,17685,0.22
42,78887,0.98
43,17030,0.21
44,37838,0.47
45,15023,0.19
46,25321,0.31
47,36665,0.46
48,17754,0.22
49,28263,0.35
50,17819,0.22
51,5210,0.06
52,16484,0.2
53,21513,0.27
54,228905,2.85
55,8645,0.11
56,38580,0.48
57,21645,0.27
58,23317,0.29
59,41307,0.51
60,7806,0.1
61,16574,0.21
62,10584,0.13
63,7237,0.09
64,21343,0.27
65,8026,0.1
66,8660,0.11
67,13393,0.17
68,36732,0.46
69,23546,0.29
70,115333,1.43
71,74476,0.93
72,40235,0.5
73,223602,2.78
74,33680,0.42
75,584,0.01
76,9135,0.11
77,4043,0.05
78,16150,0.2
79,9398,0.12
80,11879,0.15
81,43104,0.54
82,6239,0.08
83,66923,0.83
84,31253,0.39
85,6884,0.09
86,10670,0.13
87,15663,0.19
88,1931,0.02
89,34176,0.42
90,15278,0.19
91,10863,0.14
92,11805,0.15
93,15229,0.19
94,13891,0.17
95,11175,0.14
96,59265,0.74
97,29010,0.36
98,16688,0.21
99,3899,0.05
100,169546,2.11
101,43582,0.54
102,7181,0.09
103,963,0.01
104,1584,0.02
105,1608,0.02
106,20581,0.26
107,87416,1.09
108,16876,0.21
109,3316,0.04
110,10965,0.14
111,14046,0.17
112,1130,0.01
113,3026,0.04
114,5246,0.07
115,13581,0.17
116,64086,0.8
117,2036,0.03
118,17243,0.21
119,108385,1.35
120,39932,0.5
121,12746,0.16
122,84190,1.05
123,40747,0.51
